realdeal.com.,30,A,206.202.33.30
realdeal.com.,30,NS,ns2.reroute2.com.
realdeal.com.,30,NS,ns1.reroute2.com.
realdeal.com.,30,SOA,ns1.reroute2.com.
www.realdeal.com.,30,A,206.202.33.30
intranet.reroute.com.,0,A,206.202.33.34
intranet.reroute.com.,30,NS,ns2.reroute2.com.
intranet.reroute.com.,0,A,206.202.32.34
intranet.reroute.com.,30,SOA,ns1.reroute2.com.
intranet.reroute.com.,30,NS,ns1.reroute2.com.
www.intranet.reroute.com.,86400,A,206.202.33.34
cp.deal.com.,0,A,206.202.33.202
cp.deal.com.,0,A,206.202.32.197
deal.com.,0,A,206.202.32.151
deal.com.,30,NS,ns2.reroute2.com.
deal.com.,0,A,206.202.33.116
deal.com.,30,SOA,ns1.reroute2.com.
deal.com.,30,NS,ns1.reroute2.com.
mini.deal.com.,30,A,206.202.33.116
pqa.deal.com.,30,A,206.202.33.187
qa.deal.com.,30,A,206.202.33.188
standby.deal.com.,300,A,206.202.32.240
www.deal.com.,0,CNAME,deal.com.
gateway.dealdirect.com.,30,A,206.202.35.28
dealdirect.com.,0,A,206.202.33.210
dealdirect.com.,0,A,206.202.32.210
dealdirect.com.,30,NS,ns2.reroute2.com.
dealdirect.com.,30,NS,ns1.reroute2.com.
dealdirect.com.,30,SOA,ns1.reroute2.com.
pqa.dealdirect.com.,0,A,206.202.33.145
qa.dealdirect.com.,0,A,206.202.33.8
standby.dealdirect.com.,300,A,206.202.32.238
training.dealdirect.com.,0,A,206.202.33.159
training.dealdirect.com.,0,A,206.202.32.227
www.dealdirect.com.,30,A,206.202.33.210
www.pqa.dealdirect.com.,0,CNAME,pqa.dealdirect.com.
www.qa.dealdirect.com.,0,CNAME,qa.dealdirect.com.
www.training.dealdirect.com.,0,CNAME,training.dealdirect.com.
routetrade.com.,300,A,102.20.124.2
routetrade.com.,300,SOA,ns1.reroute2.com.
routetrade.com.,300,NS,ns1.reroute2.com.
www.routetrade.com.,300,A,102.20.124.2